EESchema Schematic File Version 2
LIBS:power
LIBS:device
LIBS:switches
LIBS:relays
LIBS:motors
LIBS:transistors
LIBS:conn
LIBS:linear
LIBS:regul
LIBS:74xx
LIBS:cmos4000
LIBS:adc-dac
LIBS:memory
LIBS:xilinx
LIBS:microcontrollers
LIBS:dsp
LIBS:microchip
LIBS:analog_switches
LIBS:motorola
LIBS:texas
LIBS:intel
LIBS:audio
LIBS:interface
LIBS:digital-audio
LIBS:philips
LIBS:display
LIBS:cypress
LIBS:siliconi
LIBS:opto
LIBS:atmel
LIBS:contrib
LIBS:valves
LIBS:diode
LIBS:leds
LIBS:LED
LIBS:Hanover-cache
EELAYER 25 0
EELAYER END
$Descr A4 11693 8268
encoding utf-8
Sheet 1 1
Title "ESP32 Contest - PICO V4 to Hanover Flip Dot"
Date "2018-03-19"
Rev "1.0"
Comp ""
Comment1 "dkroeske@gmail.com"
Comment2 ""
Comment3 ""
Comment4 ""
$EndDescr
$Comp
L SW_Push SW?
U 1 1 5AB01557
P 5000 4100
F 0 "SW?" H 5050 4200 50  0000 L CNN
F 1 "SW_Push" H 5000 4040 50  0000 C CNN
F 2 "" H 5000 4300 50  0001 C CNN
F 3 "" H 5000 4300 50  0001 C CNN
	1    5000 4100
	0    -1   -1   0   
$EndComp
$Comp
L R R?
U 1 1 5AB01598
P 5000 3650
F 0 "R?" V 5080 3650 50  0000 C CNN
F 1 "R" V 5000 3650 50  0000 C CNN
F 2 "" V 4930 3650 50  0001 C CNN
F 3 "" H 5000 3650 50  0001 C CNN
	1    5000 3650
	1    0    0    -1  
$EndComp
$Comp
L 1N4148 D?
U 1 1 5AB0160F
P 3950 2150
F 0 "D?" H 3950 2250 50  0000 C CNN
F 1 "1N4148" H 3950 2050 50  0000 C CNN
F 2 "Diodes_THT:D_DO-35_SOD27_Horizontal_RM10" H 3950 1975 50  0001 C CNN
F 3 "" H 3950 2150 50  0001 C CNN
	1    3950 2150
	-1   0    0    1   
$EndComp
$Comp
L C C?
U 1 1 5AB0165E
P 2450 2150
F 0 "C?" H 2475 2250 50  0000 L CNN
F 1 "C" H 2475 2050 50  0000 L CNN
F 2 "" H 2488 2000 50  0001 C CNN
F 3 "" H 2450 2150 50  0001 C CNN
	1    2450 2150
	1    0    0    -1  
$EndComp
$Comp
L 75LBC176 U?
U 1 1 5AB016B5
P 3150 5800
F 0 "U?" H 3500 6250 50  0000 C CNN
F 1 "SN75176" H 3500 6150 50  0000 C CNN
F 2 "" H 3150 5800 50  0001 C CNN
F 3 "" H 3150 5800 50  0001 C CNN
	1    3150 5800
	-1   0    0    -1  
$EndComp
$Comp
L Neopixel_THT D?
U 1 1 5AB0195F
P 3050 2150
F 0 "D?" H 3150 2375 50  0000 L BNN
F 1 "Neopixel_THT" H 2500 1900 50  0000 L TNN
F 2 "" H 3150 1850 50  0001 L TNN
F 3 "" H 3150 1775 50  0001 L TNN
	1    3050 2150
	-1   0    0    -1  
$EndComp
$Comp
L R R?
U 1 1 5AB019CA
P 2100 6150
F 0 "R?" V 2180 6150 50  0000 C CNN
F 1 "R" V 2100 6150 50  0000 C CNN
F 2 "" V 2030 6150 50  0001 C CNN
F 3 "" H 2100 6150 50  0001 C CNN
	1    2100 6150
	1    0    0    -1  
$EndComp
$Comp
L R R?
U 1 1 5AB01B20
P 3600 1950
F 0 "R?" V 3680 1950 50  0000 C CNN
F 1 "R" V 3600 1950 50  0000 C CNN
F 2 "" V 3530 1950 50  0001 C CNN
F 3 "" H 3600 1950 50  0001 C CNN
	1    3600 1950
	1    0    0    -1  
$EndComp
$Comp
L GND #PWR?
U 1 1 5AB01BF6
P 3050 2600
F 0 "#PWR?" H 3050 2350 50  0001 C CNN
F 1 "GND" H 3050 2450 50  0000 C CNN
F 2 "" H 3050 2600 50  0001 C CNN
F 3 "" H 3050 2600 50  0001 C CNN
	1    3050 2600
	1    0    0    -1  
$EndComp
$Comp
L +5V #PWR?
U 1 1 5AB01C1A
P 3050 1700
F 0 "#PWR?" H 3050 1550 50  0001 C CNN
F 1 "+5V" H 3050 1840 50  0000 C CNN
F 2 "" H 3050 1700 50  0001 C CNN
F 3 "" H 3050 1700 50  0001 C CNN
	1    3050 1700
	1    0    0    -1  
$EndComp
Wire Wire Line
	3050 1700 3050 1850
Wire Wire Line
	3050 2450 3050 2600
Wire Wire Line
	2450 2300 2450 2500
Wire Wire Line
	2450 2500 3050 2500
Connection ~ 3050 2500
Wire Wire Line
	2450 2000 2450 1750
Wire Wire Line
	2450 1750 3050 1750
Connection ~ 3050 1750
$Comp
L +5V #PWR?
U 1 1 5AB01F27
P 3600 1700
F 0 "#PWR?" H 3600 1550 50  0001 C CNN
F 1 "+5V" H 3600 1840 50  0000 C CNN
F 2 "" H 3600 1700 50  0001 C CNN
F 3 "" H 3600 1700 50  0001 C CNN
	1    3600 1700
	1    0    0    -1  
$EndComp
Wire Wire Line
	3600 1700 3600 1800
Wire Wire Line
	3450 2150 3800 2150
Wire Wire Line
	3600 2150 3600 2100
Connection ~ 3600 2150
Wire Wire Line
	4100 2150 4450 2150
$Comp
L GND #PWR?
U 1 1 5AB02094
P 5000 4400
F 0 "#PWR?" H 5000 4150 50  0001 C CNN
F 1 "GND" H 5000 4250 50  0000 C CNN
F 2 "" H 5000 4400 50  0001 C CNN
F 3 "" H 5000 4400 50  0001 C CNN
	1    5000 4400
	1    0    0    -1  
$EndComp
Wire Wire Line
	5000 3400 5000 3500
Wire Wire Line
	5000 3800 5000 3900
Wire Wire Line
	5000 4300 5000 4400
Wire Wire Line
	5000 3850 6400 3850
Connection ~ 5000 3850
$Comp
L +3.3V #PWR?
U 1 1 5AB02141
P 5000 3400
F 0 "#PWR?" H 5000 3250 50  0001 C CNN
F 1 "+3.3V" H 5000 3540 50  0000 C CNN
F 2 "" H 5000 3400 50  0001 C CNN
F 3 "" H 5000 3400 50  0001 C CNN
	1    5000 3400
	1    0    0    -1  
$EndComp
Wire Wire Line
	2350 6050 2350 5850
Wire Wire Line
	2350 5850 1800 5850
Wire Wire Line
	2100 6000 2100 5850
Connection ~ 2100 5850
Wire Wire Line
	2350 6250 2350 6400
Wire Wire Line
	2350 6400 1800 6400
Wire Wire Line
	2100 6300 2100 6400
Connection ~ 2100 6400
$Comp
L GND #PWR?
U 1 1 5AB026B6
P 3350 6500
F 0 "#PWR?" H 3350 6250 50  0001 C CNN
F 1 "GND" H 3350 6350 50  0000 C CNN
F 2 "" H 3350 6500 50  0001 C CNN
F 3 "" H 3350 6500 50  0001 C CNN
	1    3350 6500
	1    0    0    -1  
$EndComp
$Comp
L +5V #PWR?
U 1 1 5AB026D9
P 3350 5200
F 0 "#PWR?" H 3350 5050 50  0001 C CNN
F 1 "+5V" H 3350 5340 50  0000 C CNN
F 2 "" H 3350 5200 50  0001 C CNN
F 3 "" H 3350 5200 50  0001 C CNN
	1    3350 5200
	1    0    0    -1  
$EndComp
Wire Wire Line
	3350 5200 3350 5300
Wire Wire Line
	3350 6400 3350 6500
Wire Wire Line
	3950 5350 4500 5350
Wire Wire Line
	4150 5350 4150 5950
Wire Wire Line
	4150 5950 3950 5950
Wire Wire Line
	3950 5650 4500 5650
Connection ~ 4150 5350
Text Label 6400 3850 0    60   ~ 0
Reset_IP
Text Label 4450 2150 0    60   ~ 0
LED_
Text Label 4500 5650 0    60   ~ 0
RS485_TX
Text Label 4500 5350 0    60   ~ 0
RX485_TX_ENABLE
Text Label 1800 5850 0    60   ~ 0
A
Text Label 1800 6400 0    60   ~ 0
B
Text Notes 950  6200 0    60   ~ 0
To Hanover Flipdot
Text Notes 4700 5800 0    60   ~ 0
pin 10=TX ESP32 PICO KIT V4
Text Notes 6000 4050 0    60   ~ 0
IO4 on ESP32 PICO KIT V4
Text Notes 4350 2350 0    60   ~ 0
IO2 on ESP32 PICO KIT V4
Text Notes 5350 3550 0    60   ~ 0
Press during power-up to activate Hotspot\nfor WLAN and IP settings
Text Notes 3900 1750 0    60   ~ 0
RED : Netwerk error\nBLUE: HOTSPOT mode (WLAN settings)\nGREEN: all is OK\nGREEN-BLINK: MQTT topic updated
$EndSCHEMATC
